               epoch,      train/box_loss,      train/obj_loss,      train/cls_loss,   metrics/precision,      metrics/recall,     metrics/mAP_0.5,metrics/mAP_0.5:0.95,        val/box_loss,        val/obj_loss,        val/cls_loss,               x/lr0,               x/lr1,               x/lr2
                   0,            0.097053,            0.030683,                   0,           0.0033333,             0.14286,           0.0047935,           0.0014765,            0.060375,            0.021643,                   0,              0.0901,              0.0011,              0.0011
                   1,            0.063715,            0.029155,                   0,             0.19157,             0.28571,             0.20567,            0.091129,            0.035664,            0.018189,                   0,            0.078541,            0.001541,            0.001541
                   2,            0.065283,            0.027653,                   0,             0.73629,             0.28571,             0.45424,             0.23818,            0.042908,            0.015749,                   0,             0.06619,             0.00119,             0.00119
