10 0.4765625 0.37421875 0.19375 0.28515625
10 0.59453125 0.71875 0.1953125 0.290625
10 0.40234375 0.73125 0.18359375 0.2796875
10 0.2265625 0.2796875 0.2 0.28515625
10 0.80859375 0.2890625 0.19765625 0.3
10 0.63984375 0.1328125 0.171875 0.26484375
10 0.79140625 0.86953125 0.1984375 0.2609375
10 0.071875 0.4703125 0.1390625 0.2953125
10 0.87890625 0.62265625 0.20078125 0.27421875
10 0.13828125 0.93203125 0.20390625 0.1359375